1,Lavena,27,1.6,31.14
2,Guenna,12,1.63,83.74
3,Larine,5,1.81,56.07
4,Marysa,100,1.06,73.58
5,Harv,11,1.68,73.11
6,Amble,20,1.7,53.02
7,Shadow,9,1.9,54.22
8,Karlyn,62,1.97,82.32
9,Traver,9,1.16,98.92
10,Jenine,68,1.74,34.54
11,Jozef,46,1.96,51.63
12,Jacinda,40,1.68,89.99
13,Rolph,63,1.73,41.36
14,Zachariah,77,1.94,33.94
15,Sigismond,43,1.84,62.35
16,Alix,31,1.46,44.04
17,Tobiah,37,1.74,37.02
18,Roma,32,1.42,61.14
19,Kendrick,84,1.68,30.61
20,Jephthah,52,1.71,79.22
21,Urbain,20,1.36,78.62
22,Hartley,9,1.65,34.57
23,Dina,63,1.75,72.56
24,Helge,61,1.09,42.77
25,Dianne,32,1.34,53.15
26,Emmery,45,1.27,58.97
27,Dee,20,1.12,40.0
28,Teodoor,44,1.09,65.05
29,Meade,86,1.15,40.64
30,Christian,73,1.61,46.55
31,Lloyd,12,1.46,85.72
32,Jemie,83,1.9,62.63
33,Amelie,91,1.77,51.54
34,Halsey,73,1.31,56.68
35,Roselia,4,1.19,78.25
36,Lebbie,20,1.45,83.08
37,Stephenie,2,1.0,32.93
38,Ardisj,40,1.03,30.57
39,Samuele,65,1.65,42.55
40,Mack,99,1.89,67.46
41,Quint,93,1.39,53.01
42,Jedd,93,1.68,87.86
43,Heddi,27,1.48,76.8
44,Maximo,63,1.29,53.25
45,Joella,41,1.19,42.83
46,Guendolen,12,1.16,55.22
47,Korie,68,1.85,81.2
48,Brandie,79,1.15,92.86
49,Maryrose,46,1.55,88.02
50,Rhianna,44,1.78,47.74
51,Alison,74,1.22,37.5
52,Gustave,16,1.91,81.34
53,Lexy,35,1.61,83.54
54,Karel,56,1.88,91.76
55,Gery,99,1.79,88.56
56,Cristal,7,1.46,94.93
57,Roth,80,1.98,65.97
58,Rouvin,25,1.73,40.7
59,Devina,50,1.67,87.98
60,Gale,54,1.8,31.55
61,Tamma,81,1.53,37.33
62,Obie,24,1.12,92.17
63,Westbrook,23,1.58,79.08
64,Jammal,76,1.67,99.33
65,Mateo,78,1.61,59.08
66,Letitia,41,1.7,52.49
67,Edith,94,1.74,84.0
68,Alli,84,1.39,46.49
69,Andy,10,1.37,87.25
70,Brittney,14,1.91,95.02
71,Tessi,59,1.94,93.97
72,Brody,99,1.95,73.83
73,Eran,64,1.63,30.16
74,Ali,2,1.42,89.73
75,Loy,37,1.64,92.44
76,Greer,82,1.33,66.6
77,Chev,43,1.18,58.95
78,Kenyon,96,1.96,54.29
79,Car,90,1.26,46.9
80,Datha,16,1.82,96.66
81,Edwin,33,1.83,78.09
82,Larina,73,1.67,95.92
83,Gare,17,1.91,53.97
84,Jedd,6,1.86,65.89
85,Charlena,44,1.23,43.55
86,Wilbur,84,1.13,47.19
87,Billy,86,1.62,45.81
88,Ryann,87,1.0,39.36
89,Kathlin,79,1.4,71.13
90,Abbe,8,1.58,32.36
91,Glynnis,15,1.74,47.76
92,Hally,46,1.1,31.34
93,Raphael,16,1.68,83.85
94,Michele,43,1.38,98.77
95,Hersh,86,1.06,85.56
96,Jermaine,39,1.84,83.56
97,Lindy,76,1.13,99.92
98,Gae,62,1.24,72.57
99,Walden,60,1.13,45.92
100,Tedd,61,1.65,49.84
101,Cullie,33,1.58,81.22
102,Carola,33,1.2,93.99
103,Christiana,44,1.55,37.59
104,Robin,21,1.64,63.48
105,Kalina,90,1.48,33.86
106,Stormy,99,1.72,65.07
107,Tirrell,70,1.32,74.44
108,Philomena,24,1.22,73.93
109,Kristi,58,1.22,57.97
110,Domingo,44,1.82,78.31
111,Shena,20,1.57,50.35
112,Massimiliano,13,1.28,35.8
113,Chastity,24,1.24,64.58
114,Ruddie,59,1.23,32.35
115,Erhart,94,1.16,34.68
116,Benni,41,1.24,54.38
117,Nathaniel,53,1.48,73.7
118,Cacilie,61,1.87,38.77
119,Normy,18,1.85,58.83
120,Roland,12,1.05,63.43
121,Mattie,2,1.68,51.79
122,Yves,77,1.24,85.45
123,Alameda,29,1.46,49.86
124,Rikki,49,1.55,95.76
125,Pavia,79,1.3,94.61
126,Frasco,98,1.12,62.16
127,Bron,23,1.45,41.29
128,Cassy,46,1.65,82.61
129,Marianna,49,1.22,91.49
130,Nedda,90,1.57,43.64
131,Rhona,27,1.65,33.31
132,Darrelle,70,1.37,57.07
133,Karry,40,1.15,39.36
134,Frans,84,1.73,98.94
135,Wilbur,89,1.95,86.02
136,Dorey,100,1.14,68.09
137,Wally,58,1.47,91.8
138,Marcelle,65,1.59,79.56
139,Ignacius,48,1.39,50.13
140,Brigitte,92,1.08,85.75
141,Marcellina,85,1.88,98.47
142,Nerty,4,1.78,30.24
143,Torrey,89,1.33,37.03
144,Star,24,1.01,95.21
145,Evyn,59,1.18,60.86
146,Ericha,26,1.65,79.43
147,Noll,1,1.21,57.13
148,Shelbi,42,1.33,36.54
149,Nicolai,77,1.31,77.92
150,Bear,18,1.55,50.05
151,Malia,21,1.33,91.82
152,Pietrek,82,1.18,67.22
153,Raff,85,1.84,42.4
154,Prudi,72,1.01,56.97
155,Hildagard,71,1.33,99.53
156,Vincents,38,1.91,64.34
157,Katie,25,1.2,47.38
158,Alice,5,1.02,55.48
159,Lianne,44,1.85,36.41
160,Romola,61,1.02,91.42
161,Micki,1,1.28,45.83
162,Terrill,31,1.6,37.89
163,Adelina,84,1.04,44.04
164,Tirrell,14,1.51,34.39
165,Thibaut,54,1.53,40.85
166,Dean,2,1.42,32.58
167,Angeline,28,1.97,88.85
168,Giordano,69,1.48,91.18
169,Ted,83,1.21,98.43
170,Isadora,38,1.16,41.48
171,Calley,91,1.88,37.33
172,Filide,30,1.74,70.0
173,Orville,89,1.83,36.22
174,Roland,69,1.73,83.91
175,Rosana,44,1.83,71.13
176,Jonas,82,1.15,51.81
177,Richie,9,1.81,73.53
178,Glennie,18,1.07,45.82
179,Katerina,22,1.17,67.41
180,Patty,23,1.51,36.43
181,Inness,72,1.32,62.1
182,Chris,73,1.57,90.6
183,Raine,72,1.01,89.79
184,Kathy,4,1.21,38.08
185,Dania,47,1.33,34.26
186,Laney,8,1.64,30.38
187,Costa,79,1.73,96.66
188,Justinn,69,1.37,98.43
189,Cathie,77,1.91,36.76
190,Fenelia,26,1.84,41.63
191,Langsdon,69,1.93,66.01
192,Persis,56,1.71,51.53
193,Decca,100,1.67,58.59
194,Gorden,87,1.08,94.63
195,Salomi,83,1.34,79.04
196,Bertina,35,1.76,67.31
197,Moises,61,1.43,52.33
198,Krystal,74,1.18,77.2
199,Redd,95,1.24,31.82
200,Burtie,12,1.32,92.04
201,Gare,83,1.94,40.68
202,Adolf,22,1.79,61.98
203,Lila,83,1.17,71.27
204,Ricca,77,1.28,71.04
205,Bel,26,1.44,94.55
206,Herb,100,1.49,90.46
207,Gram,55,1.21,33.56
208,Tori,1,1.29,99.71
209,Phaidra,100,1.33,39.67
210,Essy,80,1.41,62.28
211,Wake,70,1.26,77.38
212,Eugen,77,1.73,79.42
213,Hetti,60,1.22,78.8
214,Sheffy,52,1.84,80.61
215,Karen,64,1.85,86.02
216,Klarika,41,1.23,65.46
217,Cynthie,49,1.17,38.28
218,Harwilll,72,1.08,41.5
219,Gustave,77,1.08,53.8
220,Anthe,88,1.23,85.81
221,Elinore,82,1.12,89.74
222,Claire,78,1.79,82.64
223,Peyter,9,1.4,90.34
224,Gates,33,1.35,64.95
225,Tabby,95,1.21,78.82
226,Rossy,48,1.37,66.57
227,Shelley,55,1.58,90.58
228,Elset,49,1.07,38.68
229,Hortensia,46,1.79,79.33
230,Betsy,10,1.8,57.27
231,Muhammad,69,1.13,92.72
232,Shermie,94,1.26,84.91
233,Cathy,19,1.07,44.13
234,Blakelee,66,1.62,52.54
235,Manya,95,1.42,97.15
236,Melony,31,1.82,98.82
237,Luther,39,1.29,75.91
238,Delores,65,1.71,30.19
239,Currey,75,1.62,74.91
240,Cory,80,1.94,40.28
241,Stavro,84,1.0,96.09
242,Enrica,93,1.32,51.97
243,Sallyann,9,1.83,32.12
244,Valentia,47,1.18,85.73
245,Burch,31,1.17,34.48
246,Quillan,30,1.03,30.24
247,Bobbe,72,1.42,98.9
248,Louella,79,1.94,44.67
249,Thaddeus,15,1.14,36.45
250,Milissent,97,1.17,66.14
251,Brynn,12,1.24,94.25
252,Gertrudis,82,1.39,96.24
253,Ashia,87,1.96,86.7
254,Zarah,52,1.07,52.35
255,Mikol,93,1.44,70.31
256,Kendrick,57,1.4,96.7
257,Brandise,11,1.82,58.41
258,Jesse,96,1.35,93.48
259,Rouvin,74,1.05,80.03
260,Harmony,60,1.56,61.75
261,Myrtie,64,1.46,35.26
262,Glenda,50,1.55,79.38
263,Ollie,20,1.85,94.48
264,Bertram,59,1.86,97.2
265,Jarret,56,1.11,38.2
266,Cornela,22,1.7,58.72
267,Janna,13,1.16,69.33
268,Fanechka,30,1.6,41.23
269,Herold,17,1.5,35.42
270,Francisco,85,1.54,62.72
271,Darwin,60,1.51,77.92
272,Edee,35,1.99,35.73
273,Walton,24,1.81,64.59
274,Leo,52,1.72,69.92
275,Leon,82,1.52,97.6
276,Sybila,62,1.19,98.0
277,Pegeen,80,1.81,36.95
278,Ashley,9,1.69,98.25
279,Matthew,49,1.54,96.92
280,Doralyn,76,1.42,99.53
281,Carolyne,80,1.02,73.58
282,Roddy,47,1.78,96.38
283,Isidora,74,1.04,49.9
284,Kara,37,1.34,88.08
285,Deloria,18,1.48,46.11
286,Eric,100,1.94,38.54
287,Caesar,25,1.66,58.89
288,Deane,85,1.3,70.01
289,Mitzi,17,1.58,52.53
290,Kandace,40,1.67,78.69
291,Zonnya,42,1.28,40.87
292,Sarette,1,1.78,77.4
293,Leanor,62,1.78,39.11
294,Bryana,1,1.65,50.59
295,Lev,64,1.06,84.52
296,Felice,78,1.74,90.74
297,Hannie,84,1.05,65.49
298,Odelia,68,1.94,33.11
299,Pierette,78,1.98,52.33
300,Niels,86,1.22,52.14
301,Nicola,25,1.65,43.72
302,Danella,84,1.19,65.11
303,Albina,19,1.67,62.67
304,Davine,48,1.48,73.56
305,Webb,4,1.58,67.47
306,Isadore,86,1.92,32.2
307,Arlan,70,1.84,40.09
308,Lewie,49,1.05,72.73
309,Ware,56,1.83,48.07
310,Jarid,50,1.03,74.39
311,Norris,77,1.46,60.33
312,Nessi,50,1.98,30.37
313,Sibley,14,1.85,61.5
314,Filbert,66,1.65,57.28
315,Drusy,12,1.59,96.85
316,Carlos,22,1.39,79.12
317,Dmitri,60,1.64,83.16
318,Tanhya,73,1.87,61.22
319,Sergent,61,1.72,93.4
320,Bertha,48,1.94,93.23
321,Rani,27,1.13,71.83
322,Wylie,83,1.24,46.89
323,Danielle,32,1.3,70.84
324,Emmey,81,1.01,41.73
325,Kettie,4,1.9,76.83
326,Tyson,22,1.15,72.27
327,Zsazsa,58,1.98,39.4
328,Guthrey,81,1.42,81.43
329,Sonny,95,1.63,57.58
330,Norrie,75,1.29,46.92
331,Sig,61,1.7,74.14
332,Barbara,64,1.77,76.25
333,Ketty,96,1.27,36.84
334,Loralyn,19,1.96,37.65
335,Janice,14,1.04,48.76
336,Sophie,68,1.98,98.71
337,Rayner,8,1.11,45.64
338,Joelly,78,1.15,69.11
339,Hersh,34,1.66,57.47
340,Willamina,31,1.13,92.07
341,Denna,12,1.26,44.71
342,Christophe,57,1.18,63.21
343,Anselma,72,1.4,83.05
344,Cherie,98,1.96,62.25
345,Tate,94,1.8,91.22
346,Aubrey,80,1.46,64.36
347,Drusilla,90,1.1,64.73
348,Sidonia,88,1.62,51.14
349,Amara,82,1.89,33.92
350,Nerita,81,1.22,81.53
351,Emma,2,1.66,79.43
352,Normy,97,1.08,60.91
353,Junie,62,1.66,35.04
354,Bride,68,1.34,57.72
355,Brena,48,1.07,47.02
356,Austin,88,1.24,84.02
357,Noemi,78,1.77,42.72
358,Alfonso,79,1.48,84.64
359,Chrysler,9,1.84,87.76
360,Leese,87,1.86,53.43
361,Kristoffer,54,1.21,53.77
362,Raleigh,35,1.17,72.49
363,Beret,56,1.85,66.01
364,Iain,49,1.85,74.2
365,Dennis,95,1.09,65.91
366,Stafani,3,1.52,37.02
367,Maynord,68,1.34,82.65
368,Sterling,33,1.86,85.04
369,Aloin,77,1.34,54.53
370,Dean,30,1.08,37.47
371,Jeanelle,17,1.5,98.14
372,Forrest,56,1.93,67.43
373,Claiborn,100,1.78,45.6
374,Hasheem,46,1.17,48.94
375,Kenny,12,1.86,78.68
376,Hilly,81,1.01,59.54
377,Ettie,82,1.16,49.91
378,Lea,19,1.15,79.87
379,Baudoin,76,1.99,91.37
380,Hetty,65,1.76,35.99
381,Melany,55,1.92,57.03
382,Salomo,34,1.04,38.09
383,Otha,26,1.33,66.58
384,Elke,67,1.83,90.08
385,Sena,38,1.59,96.24
386,Shayla,14,1.34,54.02
387,Jo ann,78,1.24,52.44
388,Alphonse,5,1.33,36.63
389,Garvey,76,1.32,61.53
390,Gael,87,1.74,69.24
391,Jeno,35,1.96,76.56
392,Stacie,38,1.54,49.82
393,Hestia,89,1.03,38.14
394,Ninetta,12,1.02,71.56
395,Ali,34,1.98,63.7
396,Ninnetta,67,1.59,88.81
397,Dara,33,1.95,57.6
398,Storm,46,1.79,90.09
399,Dillon,13,1.36,63.11
400,Amos,71,1.78,62.7
401,Erasmus,92,1.57,66.17
402,Nicolis,53,1.89,34.13
403,Laurence,99,1.7,40.64
404,Tana,44,1.22,42.74
405,Wyn,49,1.89,37.5
406,Cordie,48,1.5,93.37
407,Corella,45,1.81,82.96
408,Tybalt,90,1.28,35.99
409,Bonny,53,1.3,82.51
410,Bibbie,71,1.44,51.01
411,Elora,4,1.26,56.2
412,Adrianne,98,1.54,95.9
413,Reggie,90,1.27,52.77
414,Stoddard,98,1.02,92.38
415,Fabian,51,1.11,78.47
416,Tabatha,54,1.26,79.87
417,Blane,53,1.64,65.46
418,Dniren,32,1.21,62.1
419,Daniella,8,1.02,68.68
420,Chicky,57,1.57,44.78
421,Holly,94,1.51,71.67
422,Donall,64,1.23,81.25
423,Katerina,2,1.31,98.53
424,Dagmar,20,1.1,44.97
425,Melvyn,62,1.08,42.23
426,Juditha,29,1.37,82.06
427,Gil,30,2.0,88.49
428,Minnnie,10,1.16,44.14
429,Jarred,80,1.42,87.99
430,Johnny,83,1.11,93.28
431,Ardelis,55,1.16,38.31
432,Ester,61,1.63,95.57
433,Putnem,97,1.88,33.68
434,Meyer,25,1.86,81.7
435,Caprice,28,1.34,51.66
436,Caldwell,6,1.88,70.87
437,Claribel,36,1.99,42.3
438,Louise,47,1.1,46.86
439,Eb,3,1.64,86.57
440,Kristine,68,1.76,40.21
441,Clayborne,91,1.53,96.83
442,Adora,96,1.37,72.93
443,Minetta,52,1.89,68.29
444,Gabriellia,37,1.08,75.92
445,Wayne,65,1.89,69.49
446,Heall,47,1.93,69.67
447,Kim,87,1.91,31.2
448,Vasili,48,1.33,81.99
449,Billy,40,1.77,44.89
450,Adel,73,1.09,71.5
451,Randie,88,1.8,89.8
452,Archaimbaud,44,1.9,61.75
453,Kendra,55,1.83,64.89
454,Michaela,98,1.6,43.98
455,Willa,17,1.08,55.42
456,Jackelyn,68,1.62,69.37
457,Northrup,24,1.45,82.92
458,Catie,23,1.72,54.29
459,Ursola,34,1.69,92.93
460,Lena,82,1.01,51.02
461,Corey,71,1.46,74.65
462,Lucia,50,1.29,69.14
463,Ursa,63,1.35,91.84
464,Jock,3,1.45,44.87
465,Cecil,4,1.36,60.42
466,Paddie,22,1.25,31.11
467,Moyra,88,1.21,41.16
468,Cordy,60,1.17,91.05
469,Anabal,92,1.35,61.7
470,Letti,35,1.3,56.09
471,Brendis,93,1.25,87.78
472,Darnall,99,1.5,73.78
473,Abe,96,1.09,56.83
474,Stavro,9,1.85,51.44
475,Augusta,55,1.67,59.48
476,Barnett,39,1.01,68.89
477,Zena,38,1.4,58.29
478,Catie,69,1.08,98.27
479,Sibilla,95,1.52,87.26
480,Britteny,25,1.12,56.15
481,Missie,39,1.13,46.02
482,Denyse,11,1.46,71.71
483,Silva,62,1.45,63.31
484,Roxana,99,1.78,74.35
485,Chariot,57,1.14,42.36
486,Bradley,5,1.74,82.8
487,Albina,18,1.57,74.94
488,Dedie,63,1.17,46.3
489,Templeton,24,2.0,31.41
490,Charlton,23,1.07,86.04
491,Di,37,1.91,60.9
492,Vania,57,1.25,98.22
493,Ado,63,2.0,79.16
494,Cristal,98,1.8,81.29
495,Artus,97,1.41,56.56
496,Tommie,61,1.6,87.54
497,Teressa,73,1.38,87.63
498,Cleopatra,56,1.32,57.57
499,Pearl,12,1.21,34.58
500,Kitty,45,1.18,73.25
501,Lucien,18,1.93,32.64
502,Oliver,96,1.61,91.92
503,Tiffani,84,1.82,44.88
504,Bronnie,98,1.51,50.96
505,Feliks,66,1.58,44.6
506,Adrian,75,1.79,83.31
507,Howie,60,1.53,86.44
508,Giovanni,1,1.13,33.97
509,Allene,94,1.51,82.39
510,Luise,65,1.39,46.57
511,Nero,64,1.77,84.2
512,Justen,91,1.0,44.09
513,Lindon,96,1.45,52.61
514,Vania,62,1.33,34.75
515,Brittani,88,1.75,67.81
516,Duane,38,1.46,35.01
517,Opaline,7,1.49,59.82
518,Mill,53,1.26,94.7
519,Gabriel,74,1.15,78.13
520,Syd,16,1.95,38.43
521,Mavra,71,1.46,37.75
522,Jamey,79,1.08,41.41
523,Lynnette,98,1.26,61.84
524,Shari,79,1.06,77.9
525,Lark,18,1.43,74.63
526,Marilin,60,1.66,33.89
527,Galina,80,1.41,57.32
528,Frasquito,83,1.08,41.88
529,Elizabet,41,1.53,75.93
530,Gerti,17,1.6,47.8
531,Cristobal,58,1.96,51.71
532,Stern,72,1.05,54.51
533,Johann,70,1.32,83.71
534,Golda,78,1.49,48.23
535,Llywellyn,92,1.69,57.64
536,Jaye,77,1.83,51.48
537,Millie,37,1.95,55.52
538,Raina,92,1.36,35.68
539,Caroline,92,1.72,57.23
540,Thaine,17,1.58,63.63
541,Bili,67,1.21,35.7
542,Way,65,1.46,47.54
543,Murial,35,1.75,73.12
544,Rowen,81,1.13,38.16
545,Irita,88,1.77,35.7
546,Jareb,80,1.68,34.94
547,Lindsay,84,1.77,69.75
548,Tatum,89,1.11,79.16
549,Jaynell,76,1.21,75.0
550,Raine,96,1.18,42.0
551,Arlie,10,1.13,88.86
552,Fee,20,1.91,64.04
553,Collette,6,1.08,76.43
554,Wilton,96,1.49,77.5
555,Charmaine,54,1.02,95.54
556,Adair,85,1.35,97.92
557,Lewes,71,1.6,79.84
558,Ellyn,46,1.5,69.27
559,Kendre,37,1.45,90.24
560,Anica,68,1.04,43.58
561,Artie,83,1.53,46.01
562,Shaina,90,1.61,31.48
563,Ulrika,47,1.08,63.42
564,Ariella,9,1.4,39.62
565,Gavin,36,1.29,32.61
566,Tatiania,11,1.72,73.64
567,Paulina,80,1.06,39.82
568,Anita,31,1.81,38.31
569,Shaine,40,1.04,30.8
570,Shelly,17,1.31,43.95
571,Melinda,10,1.29,42.45
572,Edmund,23,1.86,52.68
573,Drusi,56,1.89,98.97
574,Devondra,22,1.38,58.67
575,Mayor,27,1.58,50.62
576,Ralph,91,1.32,95.86
577,Beauregard,5,1.53,98.94
578,Daveta,82,1.3,93.6
579,Lydon,30,1.45,97.42
580,Jolee,35,1.87,69.27
581,Clyve,100,1.78,39.66
582,Pablo,65,1.13,75.55
583,Gusty,33,1.62,35.17
584,Cinderella,64,1.85,52.39
585,Gannie,4,1.94,75.15
586,Mignon,4,1.18,83.79
587,Emmey,29,1.47,47.21
588,Carlen,73,1.22,96.29
589,Garrik,68,1.66,99.79
590,Keefe,36,1.26,80.84
591,Tito,72,1.26,99.78
592,Kayley,21,1.19,62.34
593,Jason,65,1.84,52.21
594,Minetta,81,1.44,81.6
595,Klarrisa,99,1.09,34.96
596,Marius,88,1.67,33.28
597,Kincaid,13,1.19,73.6
598,Maiga,23,1.36,92.95
599,Diahann,59,1.11,96.77
600,Kinnie,55,1.4,69.44
601,Alley,67,1.6,62.66
602,Corney,5,1.37,72.27
603,Raffarty,19,1.03,46.36
604,Gottfried,60,1.32,42.48
605,Carleton,35,1.93,58.82
606,Shannen,41,1.99,54.4
607,Elmira,81,1.64,89.07
608,Thaxter,24,1.23,68.28
609,Alvan,29,1.1,50.93
610,Tabbie,77,1.78,45.25
611,Vania,66,1.69,96.13
612,Kimberley,98,1.49,64.66
613,Adlai,1,1.53,52.43
614,Wendall,4,1.38,40.8
615,Gilberto,1,1.26,47.44
616,Alastair,69,1.01,39.96
617,Lorne,69,1.31,39.26
618,Colin,94,1.54,88.97
619,Garreth,71,1.32,80.02
620,Lethia,2,1.11,30.56
621,Aurthur,54,1.36,42.87
622,Beverlee,61,1.22,39.6
623,Guillemette,99,1.88,98.42
624,Barb,19,1.97,75.11
625,Hasheem,73,1.04,39.73
626,Emmi,37,1.94,86.75
627,Guendolen,48,1.18,44.04
628,Jordain,63,1.01,82.55
629,Wilfrid,46,1.88,82.78
630,Reinald,55,1.13,60.52
631,Calla,59,1.16,31.8
632,Ursa,21,1.7,40.9
633,Brynne,88,1.62,93.04
634,Leicester,65,1.59,52.96
635,Laughton,3,1.58,35.6
636,Jourdan,76,1.65,53.17
637,Florrie,18,1.88,62.36
638,Octavia,2,1.78,75.42
639,Chucho,35,1.09,63.29
640,Garv,80,1.74,99.28
641,Ramonda,60,1.38,83.92
642,Kirbee,46,1.91,83.68
643,Sidoney,72,1.16,34.94
644,Angeli,100,1.39,52.54
645,Trish,11,1.99,45.45
646,Linet,24,1.45,52.03
647,Elka,31,1.15,71.06
648,Padgett,11,1.9,94.34
649,Jobi,82,1.78,75.26
650,Tish,66,1.76,82.06
651,Horace,56,1.11,53.29
652,Elizabet,95,1.07,87.95
653,Dasha,79,1.32,57.35
654,Antonella,84,1.47,92.12
655,Sonni,38,1.35,55.58
656,Arlette,37,1.45,86.06
657,Mathilda,93,1.61,94.97
658,Gus,76,1.49,96.89
659,Hortense,11,1.74,85.87
660,Nannie,75,1.35,41.63
661,Izzy,17,1.85,71.48
662,Stormy,5,1.86,92.54
663,Katalin,85,1.43,82.16
664,Jo-anne,98,1.95,95.83
665,Hazel,34,1.97,62.77
666,Harlin,24,1.75,82.57
667,Wilone,69,1.35,99.29
668,Tann,41,1.44,35.01
669,Tony,43,1.13,50.82
670,Aveline,48,1.59,68.91
671,Stacey,45,1.0,46.84
672,Jonas,81,1.75,58.07
673,Meredith,25,1.65,41.35
674,Binny,95,1.31,53.95
675,Boris,25,1.65,64.46
676,Sher,57,1.55,76.71
677,Sindee,22,1.27,32.86
678,Demetre,66,1.49,82.79
679,Lita,61,1.18,92.59
680,Ruth,33,1.84,37.26
681,Pauly,72,1.83,34.01
682,Madlin,37,1.58,41.25
683,Galina,3,1.6,83.51
684,Sheelagh,28,1.67,81.66
685,Osgood,95,1.51,96.64
686,Kerr,50,1.16,41.59
687,Allie,34,1.53,84.0
688,Antons,68,1.15,32.86
689,Quentin,58,1.03,41.26
690,Layne,54,1.27,71.34
691,Toma,20,1.63,37.3
692,Salem,68,1.4,88.07
693,Maribelle,2,1.09,37.76
694,Cora,85,1.54,63.58
695,Lockwood,63,1.76,54.52
696,Sander,27,1.32,99.3
697,Kacy,23,1.24,68.26
698,Lizbeth,45,1.23,84.76
699,Brigitte,69,1.73,72.18
700,Leroy,32,1.21,86.52
701,Starlin,70,1.2,94.63
702,Prentiss,9,1.77,55.19
703,Robin,100,1.04,52.84
704,Jarid,16,1.19,53.19
705,Bryanty,55,1.48,56.91
706,Myrta,19,1.2,78.2
707,Thomas,85,1.4,72.88
708,Margarita,31,1.74,44.33
709,Rick,41,1.36,63.14
710,Sheeree,53,1.64,33.83
711,Jocelin,27,1.21,99.65
712,Beverlie,50,1.41,96.57
713,Marylinda,85,1.81,61.57
714,Ginevra,5,1.41,82.34
715,Dareen,17,1.35,68.1
716,Daisie,79,1.35,36.03
717,Raimundo,15,1.29,78.17
718,Vlad,15,1.3,99.53
719,Tirrell,94,1.28,39.97
720,Raddy,39,1.54,71.4
721,Gillie,32,1.68,68.98
722,Lizbeth,12,1.41,53.33
723,Susie,92,1.02,86.08
724,Fletcher,99,1.59,94.04
725,Deina,49,1.32,37.79
726,Jens,91,1.89,32.23
727,Koren,69,1.32,71.51
728,Ada,45,1.21,72.17
729,Basile,92,1.4,71.78
730,Morgan,53,1.87,93.62
731,Leontine,16,1.8,30.02
732,Jeremiah,13,1.0,50.38
733,Kaleena,58,1.86,54.32
734,Giulietta,63,1.84,98.42
735,Timoteo,59,1.31,39.17
736,Mandie,34,1.82,87.79
737,Sybil,11,1.16,70.98
738,Rosanna,94,1.63,94.51
739,Avictor,63,1.91,49.24
740,Blayne,89,1.1,32.6
741,Tessie,29,1.75,95.26
742,Finn,42,1.51,52.41
743,Kellyann,15,1.96,66.92
744,Damon,42,1.32,47.08
745,Bianca,44,1.42,64.05
746,Trent,26,1.31,65.6
747,Faina,94,1.01,39.95
748,Hiram,57,1.36,91.13
749,Lesya,7,1.99,64.37
750,Lynea,94,1.29,82.42
751,Kiel,54,1.32,99.34
752,Dominga,94,1.31,92.2
753,Jordana,51,1.53,96.98
754,Abramo,38,1.69,56.07
755,Lucila,62,1.96,49.14
756,Kyle,63,1.1,39.97
757,Lonnie,82,1.56,84.84
758,Glenda,29,1.12,51.81
759,Ettie,50,1.23,62.47
760,Ferdinande,55,1.1,70.68
761,Nissie,99,1.55,86.59
762,Alaric,97,1.65,40.96
763,Camille,53,1.96,82.69
764,Bryana,46,1.76,93.51
765,Phillida,99,1.14,37.36
766,Howard,64,1.19,64.88
767,Fonsie,42,1.7,46.1
768,Liva,57,1.05,32.64
769,Elissa,71,1.49,31.0
770,Florian,57,1.72,75.92
771,Fionnula,100,1.21,85.26
772,Elisabetta,13,1.06,42.98
773,Torrin,52,1.78,43.72
774,Andrea,52,1.29,42.14
775,Julina,63,1.49,76.38
776,Noah,30,1.5,84.23
777,Jacquie,33,1.76,89.19
778,Torrance,1,1.57,96.17
779,Darryl,27,1.76,31.57
780,Coletta,63,1.48,88.5
781,Morse,80,1.35,97.21
782,Timoteo,44,1.31,85.87
783,Britteny,77,1.13,49.71
784,Charlot,94,1.82,70.93
785,Romona,45,1.03,57.21
786,Nolly,28,1.44,85.72
787,Donetta,62,1.41,47.91
788,Wallace,47,1.57,51.61
789,Baxie,67,1.36,88.42
790,Domeniga,84,1.66,32.16
791,Evered,29,1.91,65.37
792,Karisa,23,1.12,94.45
793,Ivar,75,1.31,53.21
794,Hughie,18,1.3,63.75
795,Tamara,14,1.64,84.56
796,Nettle,58,1.74,54.68
797,Sherrie,52,1.35,85.0
798,Tonie,100,1.71,31.29
799,Othelia,10,1.99,32.95
800,Xymenes,1,1.24,32.02
801,Sharia,74,1.41,48.73
802,Arturo,90,1.82,63.1
803,Townie,2,1.89,36.63
804,Wilhelmine,86,1.4,40.06
805,Tomas,18,1.47,87.24
806,Addie,74,1.09,59.79
807,Lina,100,1.25,91.57
808,Morten,13,1.21,62.26
809,Ginnie,51,1.5,40.71
810,Renelle,97,1.64,60.82
811,Daniela,58,1.87,94.22
812,Job,22,1.92,53.52
813,Kacie,1,1.53,41.46
814,Evita,82,1.17,44.12
815,Quinta,64,1.99,67.56
816,Mag,39,1.15,85.43
817,Hubie,41,1.53,45.15
818,Scott,90,1.75,46.05
819,Welsh,55,1.47,31.22
820,Ursulina,90,1.87,44.78
821,Lena,97,1.03,49.86
822,Onida,49,1.83,70.15
823,Pietra,4,1.27,52.18
824,Tamera,1,1.75,84.97
825,Northrup,12,1.2,80.32
826,Fidelia,19,1.87,36.45
827,Bianca,54,1.69,75.46
828,Mufinella,88,1.3,79.15
829,Marla,10,1.18,89.93
830,Marion,70,1.72,40.5
831,Lauretta,62,1.97,39.03
832,Rozelle,32,1.26,33.9
833,Karlen,14,1.52,76.66
834,Bendix,60,1.41,83.38
835,Cristiano,78,1.75,83.77
836,Marigold,55,1.63,45.92
837,Stephanus,94,1.9,71.95
838,Rollins,42,1.62,47.94
839,Norene,15,1.97,89.76
840,Ibby,78,1.89,39.85
841,Maitilde,71,1.43,67.85
842,Ian,19,1.6,61.16
843,Kelly,33,1.59,85.82
844,Corbet,91,1.67,47.59
845,Felix,85,1.94,72.06
846,Peria,81,1.42,83.99
847,Dalila,46,1.0,73.3
848,Guinevere,98,1.29,57.89
849,Urbanus,20,1.53,96.52
850,Sargent,1,1.73,48.8
851,Kinnie,39,1.43,78.21
852,Asia,19,1.4,70.59
853,Arty,57,1.83,90.11
854,Cal,51,1.83,84.48
855,Alphard,14,1.16,34.1
856,Theressa,83,1.2,86.17
857,Ephrayim,62,1.72,81.2
858,Margy,83,1.94,62.57
859,Allistir,53,1.94,97.33
860,Elyse,70,1.29,74.71
861,Byrann,32,1.27,55.58
862,Conant,98,1.94,82.16
863,Joseph,63,1.84,98.11
864,Laurie,26,1.7,57.83
865,Jessie,63,1.08,59.75
866,Helenka,30,1.02,55.62
867,Zilvia,15,1.18,35.46
868,Scotty,51,1.37,48.52
869,Lindy,81,1.49,67.23
870,Griffie,53,1.1,56.67
871,Emmie,40,1.92,99.22
872,Emmy,21,1.27,42.8
873,Sophey,30,1.46,96.89
874,Elsinore,51,1.93,43.65
875,Dalston,69,1.32,88.16
876,Ira,64,1.61,76.2
877,Jacki,30,1.33,54.09
878,Page,97,1.62,33.64
879,Gregorius,15,1.65,64.71
880,Lynn,22,1.79,94.6
881,Ingmar,32,1.67,41.46
882,Rees,5,1.9,61.58
883,Matthus,91,1.64,77.92
884,Eryn,62,1.95,95.65
885,Wyndham,58,1.95,98.47
886,Cindelyn,21,1.4,86.7
887,Carce,7,1.91,87.26
888,Alvy,97,1.75,86.7
889,Sara,55,1.17,59.03
890,Carlota,49,1.63,69.99
891,Elnore,45,1.59,75.69
892,Hurley,25,1.92,34.48
893,Twyla,49,1.74,49.05
894,Lyman,95,1.54,77.88
895,Simone,22,1.03,60.4
896,Shermy,54,1.31,32.72
897,Brandy,17,1.83,79.65
898,Emelen,2,1.24,76.91
899,Flint,65,1.58,96.94
900,Galen,93,1.99,35.43
901,Burgess,29,1.02,67.12
902,Shea,2,1.35,88.15
903,Isaiah,9,1.89,37.87
904,Carolann,86,1.89,94.17
905,Bridget,99,1.69,59.53
906,Oriana,12,1.8,92.73
907,Kania,60,1.05,49.36
908,Caresa,45,1.19,59.72
909,Sloan,84,1.33,75.06
910,Auria,89,1.02,59.02
911,Delmore,25,1.94,32.87
912,Jeremias,1,1.62,37.04
913,Malynda,45,1.91,55.2
914,Denney,62,1.77,74.3
915,Harriot,30,1.43,31.79
916,Sanson,75,1.88,55.87
917,Virgilio,66,1.12,95.63
918,Andrus,24,1.22,96.5
919,Maurizia,64,1.48,40.06
920,Branden,66,1.27,96.78
921,Daffie,60,1.81,45.96
922,Hetti,30,1.72,82.67
923,Jon,96,1.3,52.42
924,Daryle,16,1.5,52.06
925,Editha,24,1.17,62.46
926,Reba,77,1.71,94.5
927,Etan,61,1.52,97.86
928,Maggy,81,1.55,75.46
929,Maryanna,55,1.34,34.84
930,Clemente,88,1.73,83.55
931,Kahaleel,1,1.36,66.57
932,Chloe,21,1.42,57.9
933,Sutherland,17,1.01,63.35
934,Piper,52,1.28,57.41
935,Gael,54,1.44,98.55
936,Herbie,80,1.55,33.1
937,Cori,82,1.68,44.55
938,Selig,29,1.16,50.56
939,Gregor,53,1.26,89.77
940,Sheila-kathryn,40,1.71,36.69
941,Colman,98,1.81,79.4
942,Valene,86,1.5,94.94
943,Diahann,89,1.78,65.86
944,Vinnie,98,1.42,61.46
945,Leanora,91,1.55,92.05
946,Ab,59,1.65,90.73
947,Blondell,76,1.97,40.94
948,Ranique,5,1.2,44.48
949,Egbert,46,1.86,44.19
950,Barbette,5,1.84,77.82
951,Fidole,98,1.92,58.52
952,Julita,11,1.97,80.2
953,Galven,67,1.87,48.28
954,Bernie,74,1.51,49.16
955,Zechariah,67,1.81,80.95
956,Gabrielle,83,1.58,45.07
957,Benjamin,17,2.0,41.41
958,Staffard,84,1.43,54.64
959,Evanne,86,1.75,83.29
960,Margie,81,1.38,55.66
961,Carmine,42,1.34,50.64
962,Merle,64,1.06,48.16
963,Floyd,67,1.68,87.72
964,Merna,45,1.22,77.24
965,Shane,55,1.93,64.12
966,Augy,33,1.54,92.21
967,Robbyn,38,1.3,31.66
968,Yank,40,1.46,43.51
969,Caralie,84,1.96,32.22
970,Millisent,18,1.44,79.04
971,Myrle,15,1.37,69.08
972,Mayor,88,1.24,79.96
973,Faye,76,1.84,88.9
974,Anabella,7,1.49,77.64
975,Hollis,74,1.64,95.98
976,Ignace,76,1.29,92.38
977,Tanitansy,78,1.52,33.76
978,Sigvard,30,1.29,50.64
979,Addia,92,1.45,97.47
980,Creigh,5,1.46,35.76
981,Ivie,93,1.02,77.68
982,Fenelia,38,1.09,95.05
983,Sheppard,2,1.95,78.14
984,Constanta,2,1.28,84.31
985,Kathryn,44,1.01,59.67
986,Nickola,11,1.14,55.39
987,Kev,96,1.11,93.86
988,Jackie,19,1.45,32.23
989,Terra,38,1.45,50.18
990,Virginia,78,1.73,51.93
991,Georgianna,30,1.27,78.92
992,Pauletta,25,1.47,77.13
993,Sutton,34,1.99,37.9
994,Sampson,34,1.05,71.64
995,Corliss,36,1.94,74.87
996,Bendick,37,1.96,76.27
997,Jeremias,54,1.3,48.97
998,Aggi,12,1.42,73.01
999,Giles,6,1.79,72.3
1000,Abra,77,1.69,71.19
